{
    "code": 0,
    "msg": "成功！",
    "data": {
        "saveTime": -2,
        "expiredDays": 2,
        "saveSiteWs": false,
        "saveSiteSt": false,
        "rid": "xxxxx_xxxxx_99999999_87s5463y901281195172201608191518300200201803061459479026",
        "fileName": "111111@2016-08-19_15-18-30_1.png",
        "startTime": 1524442710000,
        "importTime": 1520319585000,
        "userCode": "weiyonggao0274",
        "userName": "测试权限问题专用",
        "jobType": null,
        "uid": "GMU1100000020171206104153ffffffffe",
        "deviceId": null,
        "policeType": null,
        "caseMains": [{
            "ajbh": "JQ-JJ645014242912957791737339681699",
            "ajmc": "案件名称1",
            "ajlbmc": "name2",
            "afsj": 1521169675671,
            "bjfs": "警情来源器材报警",
            "zbmjxm": "陈白浅陈白浅陈白浅陈白浅陈白浅陈白浅陈白浅陈白浅陈白浅陈白浅",
            "zbr": "001",
            "bjrdh": "13111151409",
            "bjnr": "报警内容4",
            "sfsj": 1521170789249,
            "sfdd": "温江区金河西路温江区金河西路温江区金河西路温江区金河西路温江区金河西路温江区金河西路温江区金河西路温江区金河西路温江区金河西路温江区金河西路温江区金河西路温江区金河西路",
            "gxdw": "005",
            "gxdwmc": "市场部",
            "djsj": 1521169808946,
            "zbmj": [],
            "cjdw": ["GM000"],
            "jlly": [],
            "sldwmc": ["国迈一级0000000000000000000000000000000000000"],
            "cjsj": [1521170244885],
            "ddxcsj": [1521170586946],
            "involvedPeoples": {
                "rymc": "kjhdjashdjahduwhqwhaqhdhqwh"
            },
            "relation": true,
            "relationCase": false,
            "jckp": false,
            "fzkp": false
        }, {
            "ajbh": "JQ-JJ645014242912957791737339681699",
            "ajmc": "案件名称222222222222222222222222222222222222222222222222222222222222222222222222222222222",
            "ajlbmc": "name2",
            "afsj": 1521169675671,
            "bjfs": "警情来源器材报警",
            "zbmjxm": "陈白浅陈白浅陈白浅陈白浅陈白浅陈白浅陈白浅陈白浅陈白浅陈白浅",
            "zbr": "007",
            "bjrdh": "13111151409",
            "bjnr": "报警内容4",
            "sfsj": 1521170789249,
            "sfdd": "温江区金河西路",
            "gxdw": "005",
            "gxdwmc": "市场部",
            "djsj": 1521169808946,
            "zbmj": [],
            "cjdw": ["GM000"],
            "jlly": [],
            "sldwmc": ["国迈一级"],
            "cjsj": [1521170244885],
            "ddxcsj": [1521170586946],
            "involvedPeoples": ["民警意见5"],
            "relation": true,
            "relationCase": false,
            "jckp": false,
            "fzkp": false
        }],
        "policeSituations": [{
            "jqbh": "JQ-JJ645014242912957791737339681699",
            "jqmc": "警情名称网络诈骗0",
            "jqlbmc": "name2",
            "bjsj": 1521169675671,
            "bjfs": "警情来源器材报警",
            "bjrxm": "陈白浅陈白浅陈白浅陈白浅陈白浅陈白浅陈白浅陈白浅陈白浅陈白浅",
            "bjrxb": "女",
            "bjrdh": "13111151409",
            "bjnr": "报警内容4",
            "sfsj": 1521170789249,
            "sfdd": "温江区金河西路",
            "gxdw": "005",
            "gxdwmc": "市场部",
            "djsj": 1521169808946,
            "zbmj": [],
            "zbmjxm": [],
            "cjdw": ["GM000"],
            "jlly": [],
            "cjdwmc": ["国迈一级"],
            "cjsj": [1521170244885],
            "ddxcsj": [1521170586946],
            "mjyj": ["民警意见5"],
            "relation": true,
            "relationCase": false,
            "jckp": false,
            "fzkp": false
        }, {
            "jqbh": "JQ-JJ645014242912957791737339681699",
            "jqmc": "警情名称网络诈骗2222",
            "jqlbmc": "name2",
            "bjsj": 1521169675671,
            "bjfs": "警情来源器材报警",
            "bjrxm": "陈白浅陈白浅陈白浅陈白浅陈白浅陈白浅陈白浅陈白浅陈白浅陈白浅",
            "bjrxb": "女",
            "bjrdh": "13111151409",
            "bjnr": "报警内容4",
            "sfsj": 1521170789249,
            "sfdd": "温江区金河西路温江区金河西路温江区金河西路温江区金河西路温江区金河西路温江区金河西路温江区金河西路温江区金河西路温江区金河西路温江区金河西路温江区金河西路温江区金河西路温江区金河西路",
            "gxdw": "005",
            "gxdwmc": "市场部",
            "djsj": 1521169808946,
            "zbmj": [],
            "zbmjxm": [],
            "cjdw": ["GM000"],
            "jlly": [],
            "cjdwmc": ["国迈一级"],
            "cjsj": [1521170244885],
            "ddxcsj": [1521170586946],
            "mjyj": ["民警意见5"],
            "relation": true,
            "relationCase": false,
            "jckp": false,
            "fzkp": false
        }, {
            "jqbh": "JQ-JJ645014242912957791737339681699",
            "jqmc": "警情名称网络诈骗33333",
            "jqlbmc": "name2",
            "bjsj": 1521169675671,
            "bjfs": "警情来源器材报警",
            "bjrxm": "陈白浅陈白浅陈白浅陈白浅陈白浅陈白浅陈白浅陈白浅陈白浅陈白浅",
            "bjrxb": "女",
            "bjrdh": "13111151409",
            "bjnr": "报警内容4",
            "sfsj": 1521170789249,
            "sfdd": "温江区金河西路",
            "gxdw": "005",
            "gxdwmc": "市场部",
            "djsj": 1521169808946,
            "zbmj": [],
            "zbmjxm": [],
            "cjdw": ["GM000"],
            "jlly": [],
            "cjdwmc": ["国迈一级"],
            "cjsj": [1521170244885],
            "ddxcsj": [1521170586946],
            "mjyj": ["民警意见5"],
            "relation": true,
            "relationCase": false,
            "jckp": false,
            "fzkp": false
        }, {
            "jqbh": "JQ-JJ645014242912957791737339681699",
            "jqmc": "警情名称网络诈骗444444",
            "jqlbmc": "name2",
            "bjsj": 1521169675671,
            "bjfs": "警情来源器材报警",
            "bjrxm": "陈白浅陈白浅陈白浅陈白浅陈白浅陈白浅陈白浅陈白浅陈白浅陈白浅",
            "bjrxb": "女",
            "bjrdh": "13111151409",
            "bjnr": "报警内容4",
            "sfsj": 1521170789249,
            "sfdd": "温江区金河西路",
            "gxdw": "005",
            "gxdwmc": "市场部",
            "djsj": 1521169808946,
            "zbmj": [],
            "zbmjxm": [],
            "cjdw": ["GM000"],
            "jlly": [],
            "cjdwmc": ["国迈一级"],
            "cjsj": [1521170244885],
            "ddxcsj": [1521170586946],
            "mjyj": ["民警意见5"],
            "relation": true,
            "relationCase": false,
            "jckp": false,
            "fzkp": false
        }, {
            "jqbh": "JQ-JJ645014242912957791737339681699",
            "jqmc": "警情名称网络诈骗555555",
            "jqlbmc": "name2",
            "bjsj": 1521169675671,
            "bjfs": "警情来源器材报警",
            "bjrxm": "陈白浅陈白浅陈白浅陈白浅陈白浅陈白浅陈白浅陈白浅陈白浅陈白浅",
            "bjrxb": "女",
            "bjrdh": "13111151409",
            "bjnr": "报警内容4",
            "sfsj": 1521170789249,
            "sfdd": "温江区金河西路",
            "gxdw": "005",
            "gxdwmc": "市场部",
            "djsj": 1521169808946,
            "zbmj": [],
            "zbmjxm": [],
            "cjdw": ["GM000"],
            "jlly": [],
            "cjdwmc": ["国迈一级"],
            "cjsj": [1521170244885],
            "ddxcsj": [1521170586946],
            "mjyj": ["民警意见5"],
            "relation": true,
            "relationCase": false,
            "jckp": false,
            "fzkp": false
        }, {
            "jqbh": "JQ-JJ645014242912957791737339681699",
            "jqmc": "警情名称网络诈骗666666",
            "jqlbmc": "name2",
            "bjsj": 1521169675671,
            "bjfs": "警情来源器材报警",
            "bjrxm": "陈白浅陈白浅陈白浅陈白浅陈白浅陈白浅陈白浅陈白浅陈白浅陈白浅",
            "bjrxb": "女",
            "bjrdh": "13111151409",
            "bjnr": "报警内容4",
            "sfsj": 1521170789249,
            "sfdd": "温江区金河西路",
            "gxdw": "005",
            "gxdwmc": "市场部",
            "djsj": 1521169808946,
            "zbmj": [],
            "zbmjxm": [],
            "cjdw": ["GM000"],
            "jlly": [],
            "cjdwmc": ["国迈一级"],
            "cjsj": [1521170244885],
            "ddxcsj": [1521170586946],
            "mjyj": ["民警意见5"],
            "relation": true,
            "relationCase": false,
            "jckp": false,
            "fzkp": false
        }, {
            "jqbh": "JQ-JJ645014242912957791737339681699",
            "jqmc": "警情名称网络诈骗777777",
            "jqlbmc": "name2",
            "bjsj": 1521169675671,
            "bjfs": "警情来源器材报警",
            "bjrxm": "陈白浅陈白浅陈白浅陈白浅陈白浅陈白浅陈白浅陈白浅陈白浅陈白浅",
            "bjrxb": "女",
            "bjrdh": "13111151409",
            "bjnr": "报警内容4",
            "sfsj": 1521170789249,
            "sfdd": "温江区金河西路",
            "gxdw": "005",
            "gxdwmc": "市场部",
            "djsj": 1521169808946,
            "zbmj": [],
            "zbmjxm": [],
            "cjdw": ["GM000"],
            "jlly": [],
            "cjdwmc": ["国迈一级"],
            "cjsj": [1521170244885],
            "ddxcsj": [1521170586946],
            "mjyj": ["民警意见5"],
            "relation": true,
            "relationCase": false,
            "jckp": false,
            "fzkp": false
        }, {
            "jqbh": "JQ-JJ645014242912957791737339681699",
            "jqmc": "警情名称网络诈骗888888",
            "jqlbmc": "name2",
            "bjsj": 1521169675671,
            "bjfs": "警情来源器材报警",
            "bjrxm": "陈白浅陈白浅陈白浅陈白浅陈白浅陈白浅陈白浅陈白浅陈白浅陈白浅",
            "bjrxb": "女",
            "bjrdh": "13111151409",
            "bjnr": "报警内容4",
            "sfsj": 1521170789249,
            "sfdd": "温江区金河西路",
            "gxdw": "005",
            "gxdwmc": "市场部",
            "djsj": 1521169808946,
            "zbmj": [],
            "zbmjxm": [],
            "cjdw": ["GM000"],
            "jlly": [],
            "cjdwmc": ["国迈一级"],
            "cjsj": [1521170244885],
            "ddxcsj": [1521170586946],
            "mjyj": ["民警意见5"],
            "relation": true,
            "relationCase": false,
            "jckp": false,
            "fzkp": false
        }, {
            "jqbh": "JQ-JJ645014242912957791737339681699",
            "jqmc": "警情名称网络诈骗99999",
            "jqlbmc": "name2",
            "bjsj": 1521169675671,
            "bjfs": "警情来源器材报警",
            "bjrxm": "陈白浅陈白浅陈白浅陈白浅陈白浅陈白浅陈白浅陈白浅陈白浅陈白浅",
            "bjrxb": "女",
            "bjrdh": "13111151409",
            "bjnr": "报警内容4",
            "sfsj": 1521170789249,
            "sfdd": "温江区金河西路",
            "gxdw": "005",
            "gxdwmc": "市场部",
            "djsj": 1521169808946,
            "zbmj": [],
            "zbmjxm": [],
            "cjdw": ["GM000"],
            "jlly": [],
            "cjdwmc": ["国迈一级"],
            "cjsj": [1521170244885],
            "ddxcsj": [1521170586946],
            "mjyj": ["民警意见5"],
            "relation": true,
            "relationCase": false,
            "jckp": false,
            "fzkp": false
        }, {
            "jqbh": "JQ-JJ645014242912957791737339681699",
            "jqmc": "警情名称网络诈骗110135警情名称网络诈骗110135警情名称网络诈骗110135警情名称网络诈骗110135警情名称网络诈骗110135警情名称网络诈骗110135警情名称网络诈骗110135警情名称网络诈骗110135警情名称网络诈骗110135警情名称网络诈骗110135警情名称网络诈骗110135警情名称网络诈骗110135警情名称网络诈骗110135警情名称网络诈骗110135警情名称网络诈骗110135警情名称网络诈骗110135警情名称网络诈骗110135",
            "jqlbmc": "name2",
            "bjsj": 1521169675671,
            "bjfs": "警情来源器材报警",
            "bjrxm": "陈白浅陈白浅陈白浅陈白浅陈白浅陈白浅陈白浅陈白浅陈白浅陈白浅",
            "bjrxb": "女",
            "bjrdh": "13111151409",
            "bjnr": "报警内容4",
            "sfsj": 1521170789249,
            "sfdd": "温江区金河西路",
            "gxdw": "005",
            "gxdwmc": "市场部",
            "djsj": 1521169808946,
            "zbmj": [],
            "zbmjxm": [],
            "cjdw": ["GM000"],
            "jlly": [],
            "cjdwmc": ["国迈一级"],
            "cjsj": [1521170244885],
            "ddxcsj": [1521170586946],
            "mjyj": ["民警意见5"],
            "relation": true,
            "relationCase": false,
            "jckp": false,
            "fzkp": false
        }, {
            "jqbh": "JQ-JJ263999730409113996563362273971",
            "jqmc": "警情名称电话诈骗",
            "jqlbmc": "诈骗",
            "bjsj": 1523238596210,
            "bjfs": "警情来源电话报警",
            "bjrxm": "吴彦祖",
            "bjrxb": "男",
            "bjrdh": "13197127027",
            "bjnr": "报警呃逆荣6",
            "sfsj": 1523238593491,
            "sfdd": "孝泉镇至元明村",
            "gxdw": "qpid03chenhuiqin",
            "gxdwmc": "陈惠琴",
            "djsj": 1523239164923,
            "zbmj": ["chenhuiqin0442"],
            "zbmjxm": ["陈惠琴0442"],
            "cjdw": ["qpid10caiminchan"],
            "jlly": ["警情来源亲临报警"],
            "cjdwmc": ["蔡敏婵"],
            "cjsj": [1523239620880],
            "ddxcsj": [1523239622244],
            "mjyj": ["叫民警叫民警干嘛咯，不知道报警119火警啊叫民警干嘛咯，不知道报警119火警啊叫民警干嘛咯，不知道报警119火警啊叫民警干嘛咯，不知道报警119火警啊干嘛咯，不知道报警119火警啊"],
            "relation": true,
            "relationCase": false,
            "jckp": false,
            "fzkp": false
        }],
        "surveil": [{
            "xh": "SU0",
            "orgCode": "GM000",
            "orgName": "0号部门0号部门0号部门0号部门0号部门0号部门0号部门0号部门0号部门0号部门0号部门0号部门0号部门",
            "orgPath": "/0/",
            "userCode": "0",
            "userName": "0号员工surveil",
            "idCard": "420582199902123212",
            "wfbh": "违法编号0",
            "wftzsbh": "违法通知书编号0",
            "jdsbh": "决定书编号0决定书编号0决定书编号0决定书编号0",
            "wfsj": 1524624167081,
            "wfdz": "广州广州广州广州广州广州广州广州广州广州广州广州广州广州广州广州广州广州广州广州广州广州广州广州广州广州广州广州广州广州广州广州广州广州广州广州广州广州广州广州广州广州广州广州广州广州广州广州广州广州广州广州广州广州",
            "hphm": "粤A88888",
            "hpzl": "mypz",
            "hpzlmc": "民用牌照",
            "wfxw": "闯红灯闯红灯闯红灯闯红灯闯红灯闯红灯闯红灯闯红灯闯红灯闯红灯闯红灯闯红灯闯红灯闯红灯闯红灯闯红灯闯红灯闯红灯闯红灯闯红灯闯红灯闯红灯闯红灯闯红灯闯红灯闯红灯闯红灯闯红灯闯红灯闯红灯闯红灯闯红灯闯红灯闯红灯闯红灯闯红灯闯红灯闯红灯闯红灯闯红灯闯红灯闯红灯闯红灯闯红灯闯红灯闯红灯闯红灯闯红灯闯红灯闯红灯闯红灯闯红灯闯红灯闯红灯闯红灯闯红灯闯红灯闯红灯闯红灯闯红灯闯红灯闯红灯闯红灯闯红灯闯红灯闯红灯闯红灯闯红灯闯红灯闯红灯闯红灯闯红灯闯红灯闯红灯闯红灯闯红灯",
            "updateTime": 1524896731743,
            "files": null,
            "evaInfo": {
                "orgCode": "GM000",
                "orgPath": "/GM000/",
                "orgName": "一级部门",
                "userCode": "admin",
                "userName": "超级管理员",
                "createTime": 1524725984936,
                "evaItems": [{
                        "code": "LEVAM_JTWFKP_ZQPDZFJLY",
                        "name": "正确佩戴执法记录仪",
                        "check": true
                    },
                    {
                        "code": "LEVAM_JTWFKP_YSPZLZSYX",
                        "name": "音视频资料真实有效",
                        "check": true
                    },
                    {
                        "code": "LEVAM_JTWFKP_GZQLYRW",
                        "name": "告知权利与任务",
                        "check": true
                    },
                    {
                        "code": "LEVAM_JTWFKP_SLGJCJ",
                        "name": "摄录关键场景",
                        "check": true
                    },
                    {
                        "code": "LEVAM_JTWFKP_ZFGCWMYY",
                        "name": "执法过程文明用语",
                        "check": true
                    },
                    {
                        "code": "LEVAM_JTWFKP_YSPZLWZWJJPJ",
                        "name": "音视频资料完整，无剪辑拼接",
                        "check": true
                    },
                    {
                        "code": "LEVAM_JTWFKP_ZFGCWWFXW",
                        "name": "执法过程无违法行为",
                        "check": true
                    }
                ],
                "comment": "应改正已指出错误，真正服务于民",
                "passed": true
            },
            "reviewInfo": {
                "orgCode": "GM000",
                "orgPath": "/GM000/",
                "orgName": "一级部门",
                "userCode": "admin",
                "userName": "超级管理员",
                "createTime": 1524726245708,
                "real": true,
                "deduction": 0,
                "comment": "表现不错，继续发扬"
            }
        }],
        "violation": [{
            "wfbh": "VI0",
            "orgCode": "GM000",
            "orgName": "0号部门0号部门0号部门0号部门0号部门0号部门0号部门0号部门0号部门0号部门0号部门0号部门0号部门",
            "orgPath": "/0/",
            "userCode": "0",
            "userName": "0号员工",
            "idCard": "420582199902123212",
            "jdsbh": "决定书编号0",
            "wfsj": 1524642452000,
            "dsr": "王五violation",
            "jszh": "420582199902123212",
            "hphm": "粤A88888",
            "hpzl": "mypz",
            "hpzlmc": "民用牌照民用牌照民用牌照民用牌照民用牌照民用牌照民用牌照民用牌照民用牌照民用牌照民用牌照民用牌照民用牌照民用牌照",
            "wfdz": "广州广州广州广州广州广州广州广州广州广州广州广州广州广州广州广州广州广州广州广州广州广州广州广州广州广州广州广州广州广州广州广州广州广州广州广州广州广州广州广州广州广州广州广州广州广州广州广州广州广州广州广州广州广州",
            "wfxw": "闯红灯闯红灯闯红灯闯红灯闯红灯闯红灯闯红灯闯红灯闯红灯闯红灯闯红灯闯红灯闯红灯闯红灯闯红灯闯红灯闯红灯闯红灯闯红灯闯红灯闯红灯闯红灯闯红灯闯红灯闯红灯闯红灯闯红灯闯红灯闯红灯闯红灯闯红灯闯红灯闯红灯闯红灯闯红灯闯红灯闯红灯闯红灯闯红灯闯红灯闯红灯闯红灯闯红灯闯红灯闯红灯闯红灯闯红灯闯红灯闯红灯闯红灯闯红灯闯红灯闯红灯闯红灯闯红灯闯红灯闯红灯闯红灯闯红灯闯红灯闯红灯闯红灯闯红灯闯红灯闯红灯闯红灯闯红灯闯红灯闯红灯闯红灯闯红灯闯红灯闯红灯闯红灯闯红灯闯红灯",
            "updateTime": 1524879815925,
            "files": null,
            "evaInfo": {
                "orgCode": "GM000",
                "orgPath": "/GM000/",
                "orgName": "一级部门",
                "userCode": "admin",
                "userName": "超级管理员",
                "createTime": 1524722174745,
                "evaItems": [{
                        "code": "LEVAM_JTWFKP_ZQPDZFJLY",
                        "name": "正确佩戴执法记录仪",
                        "check": false
                    },
                    {
                        "code": "LEVAM_JTWFKP_YSPZLZSYX",
                        "name": "音视频资料真实有效",
                        "check": true
                    },
                    {
                        "code": "LEVAM_JTWFKP_GZQLYRW",
                        "name": "告知权利与任务",
                        "check": true
                    },
                    {
                        "code": "LEVAM_JTWFKP_SLGJCJ",
                        "name": "摄录关键场景",
                        "check": false
                    },
                    {
                        "code": "LEVAM_JTWFKP_ZFGCWMYY",
                        "name": "执法过程文明用语",
                        "check": false
                    },
                    {
                        "code": "LEVAM_JTWFKP_YSPZLWZWJJPJ",
                        "name": "音视频资料完整，无剪辑拼接",
                        "check": true
                    },
                    {
                        "code": "LEVAM_JTWFKP_ZFGCWWFXW",
                        "name": "执法过程无违法行为",
                        "check": true
                    }
                ],
                "comment": "应改正已指出错误，真正服务于民",
                "passed": false
            },
            "reviewInfo": {
                "orgCode": "GM000",
                "orgPath": "/GM000/",
                "orgName": "一级部门",
                "userCode": "admin",
                "userName": "超级管理员",
                "createTime": 1524801401810,
                "real": true,
                "deduction": 30,
                "comment": "应改正已指出错误，真正服务于民"
            }
        }],
        "force": [{
            "xh": "FO0",
            "orgCode": "GM000",
            "orgName": "0号部门0号部门0号部门0号部门0号部门0号部门0号部门0号部门0号部门0号部门0号部门0号部门0号部门",
            "orgPath": "/0/",
            "userCode": "0",
            "userName": "0号员工",
            "idCard": "420582199902123212",
            "pzbh": "凭证编号0凭证编号0凭证编号0凭证编号0凭证编号0凭证编号0",
            "wfsj": 1524624135230,
            "dsr": "张三force",
            "jszh": "422801197507232815",
            "hphm": "粤A88888",
            "wfdz": "广州广州广州广州广州广州广州广州广州广州广州广州广州广州广州广州广州广州广州广州广州广州广州广州广州广州广州广州广州广州广州广州广州广州广州广州广州广州广州广州广州广州广州广州广州广州广州广州广州广州广州广州广州广州",
            "wfxw": [
                "占用紧急车道", "占用紧急车道", "占用紧急车道", "占用紧急车道", "占用紧急车道", "占用紧急车道", "占用紧急车道", "占用紧急车道", "占用紧急车道", "占用紧急车道", "占用紧急车道", "占用紧急车道", "占用紧急车道", "占用紧急车道", "占用紧急车道",
                "非法赛车"
            ],
            "updateTime": 1524819782211,
            "files": null,
            "evaInfo": {
                "orgCode": "GM000",
                "orgPath": "/GM000/",
                "orgName": "一级部门",
                "userCode": "admin",
                "userName": "超级管理员",
                "createTime": 1524726943736,
                "evaItems": [{
                        "code": "LEVAM_JTWFKP_ZQPDZFJLY",
                        "name": "正确佩戴执法记录仪",
                        "check": true
                    },
                    {
                        "code": "LEVAM_JTWFKP_YSPZLZSYX",
                        "name": "音视频资料真实有效",
                        "check": true
                    },
                    {
                        "code": "LEVAM_JTWFKP_GZQLYRW",
                        "name": "告知权利与任务",
                        "check": true
                    },
                    {
                        "code": "LEVAM_JTWFKP_SLGJCJ",
                        "name": "摄录关键场景",
                        "check": true
                    },
                    {
                        "code": "LEVAM_JTWFKP_ZFGCWMYY",
                        "name": "执法过程文明用语",
                        "check": true
                    },
                    {
                        "code": "LEVAM_JTWFKP_YSPZLWZWJJPJ",
                        "name": "音视频资料完整，无剪辑拼接",
                        "check": true
                    },
                    {
                        "code": "LEVAM_JTWFKP_ZFGCWWFXW",
                        "name": "执法过程无违法行为",
                        "check": true
                    }
                ],
                "comment": "表现不错，继续发扬",
                "passed": true
            },
            "reviewInfo": {
                "orgCode": "GM000",
                "orgPath": "/GM000/",
                "orgName": "一级部门",
                "userCode": "admin",
                "userName": "超级管理员",
                "createTime": 1524727066856,
                "real": false,
                "deduction": 3,
                "comment": "未告知权利与任务"
            }
        }],
        "accident": [{
            "rid": "AC0",
            "orgCode": "GM000",
            "orgName": "0号部门0号部门0号部门0号部门0号部门0号部门0号部门0号部门0号部门0号部门0号部门0号部门0号部门",
            "orgPath": "/0/",
            "userCode": "0",
            "userName": "0号员工accident",
            "idCard": "420582199902123212",
            "hphm": null,
            "sgbh": null,
            "sglx": "追尾",
            "sgfssj": 1524638674157,
            "sgdd": "广州广州广州广州广州广州广州广州广州广州广州广州广州广州广州广州广州广州广州广州广州广州广州广州广州广州广州广州广州广州广州广州广州广州广州广州广州广州广州广州广州广州广州广州广州广州广州广州广州广州广州广州广州广州",
            "clsj": 1524638674157,
            "wfxw": "追尾闹事",
            "updateTime": 1524819757609,
            "files": null,
            "evaInfo": {
                "orgCode": "GM000",
                "orgPath": "/GM000/",
                "orgName": "一级部门",
                "userCode": "admin",
                "userName": "超级管理员",
                "createTime": 1524728051573,
                "evaItems": [{
                        "code": "LEVAM_JTWFKP_ZQPDZFJLY",
                        "name": "正确佩戴执法记录仪",
                        "check": true
                    },
                    {
                        "code": "LEVAM_JTWFKP_YSPZLZSYX",
                        "name": "音视频资料真实有效",
                        "check": false
                    },
                    {
                        "code": "LEVAM_JTWFKP_GZQLYRW",
                        "name": "告知权利与任务",
                        "check": false
                    },
                    {
                        "code": "LEVAM_JTWFKP_SLGJCJ",
                        "name": "摄录关键场景",
                        "check": false
                    },
                    {
                        "code": "LEVAM_JTWFKP_ZFGCWMYY",
                        "name": "执法过程文明用语",
                        "check": false
                    },
                    {
                        "code": "LEVAM_JTWFKP_YSPZLWZWJJPJ",
                        "name": "音视频资料完整，无剪辑拼接",
                        "check": false
                    },
                    {
                        "code": "LEVAM_JTWFKP_ZFGCWWFXW",
                        "name": "执法过程无违法行为",
                        "check": true
                    }
                ],
                "comment": "应改正已指出错误，真正服务于民",
                "passed": false
            },
            "reviewInfo": {
                "orgCode": "GM000",
                "orgPath": "/GM000/",
                "orgName": "一级部门",
                "userCode": "admin",
                "userName": "超级管理员",
                "createTime": 1524728211797,
                "real": true,
                "deduction": 20,
                "comment": "应改正已指出错误，真正服务于民"
            }
        }],
        "match": true,
        "keyFile": false
    }
}